country,iso3_code,region,continent,income,2016,2017,2018,2019,2020,2021,2022
Afghanistan,AFG,South Asia,Asia,Low,NA,NA,NA,NA,NA,10,2
Algeria,DZA,Middle East & North Africa,Africa,Lower middle,NA,NA,NA,NA,1,3,1
American Samoa,ASM,East Asia & Pacific,Oceania,NA,NA,NA,NA,NA,NA,2,NA
Argentina,ARG,Latin America & Caribbean,Americas,Upper middle,NA,NA,NA,NA,6,42,8
Australia,AUS,East Asia & Pacific,Oceania,High,7,3,306,22,1,33,26
Austria,AUT,Europe & Central Asia,Europe,High,3,14,5,69,4,36,21
Bangladesh,BGD,South Asia,Asia,Lower middle,NA,NA,NA,NA,NA,11,1
Belarus,BLR,Europe & Central Asia,Europe,Upper middle,NA,NA,NA,NA,NA,1,NA
Belgium,BEL,Europe & Central Asia,Europe,High,3,77,6,30,NA,19,11
Benin,BEN,Sub-Saharan Africa,Africa,Lower middle,NA,NA,NA,NA,NA,37,4
Bolivia,BOL,Latin America & Caribbean,Americas,Lower middle,NA,NA,NA,NA,NA,7,3
Botswana,BWA,Sub-Saharan Africa,Africa,Upper middle,NA,NA,NA,NA,NA,2,NA
Brazil,BRA,Latin America & Caribbean,Americas,Upper middle,2,1,1,3,NA,62,22
Bulgaria,BGR,Europe & Central Asia,Europe,Upper middle,NA,NA,NA,NA,NA,5,1
Burkina Faso,BFA,Sub-Saharan Africa,Africa,Low,NA,NA,NA,1,NA,8,2
Cambodia,KHM,East Asia & Pacific,Asia,Lower middle,NA,NA,NA,NA,NA,NA,1
Cameroon,CMR,Sub-Saharan Africa,Africa,Lower middle,NA,NA,NA,NA,NA,8,1
Canada,CAN,North America,Americas,High,10,7,6,13,7,59,38
Caribbean Netherlands,BES,Latin America & Caribbean,Americas,NA,1,NA,NA,NA,NA,NA,NA
Central African Republic,CAF,Sub-Saharan Africa,Africa,Low,NA,NA,NA,NA,NA,1,NA
Chile,CHL,Latin America & Caribbean,Americas,High,NA,NA,NA,1,1,7,9
China,CHN,East Asia & Pacific,Asia,Upper middle,NA,NA,2,3,3,6,6
Colombia,COL,Latin America & Caribbean,Americas,Upper middle,NA,4,NA,NA,3,16,9
Costa Rica,CRI,Latin America & Caribbean,Americas,Upper middle,NA,NA,NA,1,1,18,8
Croatia,HRV,Europe & Central Asia,Europe,High,NA,2,NA,NA,NA,2,NA
Cuba,CUB,Latin America & Caribbean,North America,Upper middle,NA,NA,NA,NA,NA,NA,1
Curaçao,CUW,Latin America & Caribbean,Americas,NA,NA,NA,NA,2,NA,4,NA
Czech Republic,CZE,Europe & Central Asia,Europe,High,NA,NA,NA,NA,NA,NA,2
Czechia,CZE,Europe & Central Asia,Europe,High,2,3,4,11,NA,7,NA
Democratic Republic of the Congo,COD,Sub-Saharan Africa,Africa,Low,NA,NA,NA,NA,NA,1,3
Denmark,DNK,Europe & Central Asia,Europe,High,6,14,4,33,2,13,7
Dominican Republic,DOM,Latin America & Caribbean,Americas,Upper middle,NA,NA,NA,NA,NA,1,1
Ecuador,ECU,Latin America & Caribbean,Americas,Upper middle,NA,NA,NA,NA,1,12,5
Egypt,EGY,Middle East & North Africa,Africa,Lower middle,NA,1,NA,NA,NA,3,3
El Salvador,SLV,Latin America & Caribbean,Americas,Lower middle,NA,NA,NA,NA,NA,7,NA
Estonia,EST,Europe & Central Asia,Europe,High,1,2,NA,7,1,NA,NA
Eswatini,SWZ,Sub-Saharan Africa,Africa,Lower middle,NA,NA,NA,NA,NA,2,NA
Ethiopia,ETH,Sub-Saharan Africa,Africa,Low,NA,NA,NA,NA,NA,25,9
Faroe Islands,FRO,Europe & Central Asia,Europe,High,1,NA,NA,NA,NA,NA,NA
Finland,FIN,Europe & Central Asia,Europe,High,1,3,NA,13,NA,10,5
France,FRA,Europe & Central Asia,Europe,High,6,45,7,239,8,53,46
Gabon,GAB,Sub-Saharan Africa,Africa,Upper middle,NA,NA,NA,NA,NA,1,NA
Gambia,GMB,Sub-Saharan Africa,Africa,Low,NA,NA,NA,NA,NA,1,1
Germany,DEU,Europe & Central Asia,Europe,High,22,86,10,160,16,132,78
Ghana,GHA,Sub-Saharan Africa,Africa,Lower middle,NA,NA,NA,NA,NA,7,1
Greece,GRC,Europe & Central Asia,Europe,High,NA,NA,NA,NA,NA,3,NA
Guatemala,GTM,Latin America & Caribbean,Americas,Upper middle,NA,1,NA,NA,NA,4,NA
Guinea,GIN,Sub-Saharan Africa,Africa,Low,NA,NA,NA,NA,NA,1,NA
Haiti,HTI,Latin America & Caribbean,Americas,Low,NA,NA,NA,NA,NA,1,NA
Honduras,HND,Latin America & Caribbean,Americas,Lower middle,NA,NA,NA,NA,NA,2,NA
Hong Kong SAR China,HKG,East Asia & Pacific,Asia,High,NA,NA,NA,NA,1,3,1
Hungary,HUN,Europe & Central Asia,Europe,High,1,3,1,3,1,4,2
Iceland,ISL,Europe & Central Asia,Europe,High,NA,NA,NA,1,NA,NA,NA
India,IND,South Asia,Asia,Lower middle,NA,2,3,1,4,105,41
Indonesia,IDN,East Asia & Pacific,Asia,Upper middle,NA,NA,1,NA,2,6,5
Iran,IRN,Middle East & North Africa,Asia,Lower middle,NA,NA,NA,NA,1,2,2
Iraq,IRQ,Middle East & North Africa,Asia,Upper middle,NA,NA,NA,NA,NA,1,NA
Ireland,IRL,Europe & Central Asia,Europe,High,1,4,NA,6,NA,12,10
Israel,ISR,Middle East & North Africa,Asia,High,1,3,NA,1,NA,3,3
Italy,ITA,Europe & Central Asia,Europe,High,1,11,3,19,4,19,11
Ivory Coast,CIV,Sub-Saharan Africa,Africa,Lower middle,NA,NA,NA,NA,NA,8,NA
Jamaica,JAM,Latin America & Caribbean,Americas,Upper middle,NA,NA,NA,NA,NA,1,1
Japan,JPN,East Asia & Pacific,Asia,High,2,3,9,6,NA,6,3
Jordan,JOR,Middle East & North Africa,Asia,Upper middle,NA,NA,NA,NA,NA,NA,1
Kazakhstan,KAZ,Europe & Central Asia,Asia,Upper middle,NA,NA,NA,NA,NA,1,NA
Kenya,KEN,Sub-Saharan Africa,Africa,Lower middle,1,NA,NA,NA,2,21,8
Latvia,LVA,Europe & Central Asia,Europe,High,2,3,NA,7,1,3,NA
Lebanon,LBN,Middle East & North Africa,Asia,Upper middle,NA,1,NA,NA,NA,NA,NA
Lesotho,LSO,Sub-Saharan Africa,Africa,Lower middle,NA,NA,NA,NA,NA,1,NA
Liberia,LBR,Sub-Saharan Africa,Africa,Low,NA,NA,NA,NA,NA,NA,1
Lithuania,LTU,Europe & Central Asia,Europe,High,NA,NA,NA,3,1,1,NA
Luxembourg,LUX,Europe & Central Asia,Europe,High,NA,2,NA,3,NA,NA,3
Madagascar,MDG,Sub-Saharan Africa,Africa,Low,NA,NA,NA,NA,NA,2,NA
Malawi,MWI,Sub-Saharan Africa,Africa,Low,NA,NA,NA,NA,NA,3,2
Malaysia,MYS,East Asia & Pacific,Asia,Upper middle,NA,NA,2,NA,NA,6,1
Mali,MLI,Sub-Saharan Africa,Africa,Low,NA,NA,NA,NA,NA,2,NA
Malta,MLT,Middle East & North Africa,Europe,High,NA,NA,NA,4,NA,NA,NA
Mauritius,MUS,Sub-Saharan Africa,Africa,High,NA,NA,NA,NA,NA,1,NA
Mexico,MEX,Latin America & Caribbean,Americas,Upper middle,NA,1,NA,1,1,18,8
Moldova,MDA,Europe & Central Asia,Europe,Lower middle,NA,NA,NA,NA,NA,1,NA
Mongolia,MNG,East Asia & Pacific,Asia,Lower middle,NA,NA,NA,NA,NA,1,NA
Morocco,MAR,Middle East & North Africa,Africa,Lower middle,NA,NA,NA,NA,NA,3,2
Mozambique,MOZ,Sub-Saharan Africa,Africa,Low,NA,NA,NA,NA,NA,1,NA
Namibia,"NAM",Sub-Saharan Africa,Africa,Upper middle,NA,NA,NA,NA,NA,1,NA
Nepal,NPL,South Asia,Asia,Lower middle,NA,NA,NA,NA,NA,5,NA
Netherlands,NLD,Europe & Central Asia,Europe,High,6,35,3,51,2,28,17
New Zealand,NZL,East Asia & Pacific,Oceania,High,2,4,18,4,NA,4,5
Nicaragua,NIC,Latin America & Caribbean,Americas,Lower middle,NA,NA,NA,NA,NA,3,NA
Niger,NER,Sub-Saharan Africa,Africa,Low,NA,NA,NA,NA,NA,2,1
Nigeria,NGA,Sub-Saharan Africa,Africa,Lower middle,NA,NA,1,NA,1,39,13
North Macedonia,MKD,Europe & Central Asia,Europe,Upper middle,NA,NA,NA,NA,NA,1,NA
Norway,NOR,Europe & Central Asia,Europe,High,1,1,2,15,1,8,8
Oman,OMN,Middle East & North Africa,Asia,High,NA,NA,NA,NA,NA,1,NA
Pakistan,PAK,South Asia,Asia,Lower middle,NA,NA,NA,NA,NA,6,1
Palestinian Territories,PSE,Middle East & North Africa,Asia,NA,NA,NA,NA,NA,NA,1,NA
Panama,PAN,Latin America & Caribbean,North America,High,NA,NA,NA,NA,NA,NA,1
Paraguay,PRY,Latin America & Caribbean,Americas,Upper middle,NA,NA,NA,NA,NA,2,1
Peru,PER,Latin America & Caribbean,Americas,Upper middle,NA,NA,NA,NA,1,14,7
Philippines,PHL,East Asia & Pacific,Asia,Lower middle,NA,NA,2,1,NA,15,2
Poland,POL,Europe & Central Asia,Europe,High,2,14,2,22,NA,32,15
Portugal,PRT,Europe & Central Asia,Europe,High,NA,2,NA,1,NA,2,2
Qatar,QAT,Middle East & North Africa,Asia,High,1,NA,NA,NA,NA,NA,NA
Republic of Korea,KOR,East Asia & Pacific,Asia,High,NA,NA,NA,NA,NA,NA,5
Republic of the Congo,COG,Sub-Saharan Africa,Africa,Lower middle,NA,NA,NA,NA,NA,1,NA
Réunion,REU,NA,Africa,NA,NA,NA,NA,1,NA,NA,NA
Romania,ROU,Europe & Central Asia,Europe,High,2,1,NA,4,2,7,2
Russia,RUS,Europe & Central Asia,Europe,Upper middle,NA,NA,NA,NA,NA,5,1
Saudi Arabia,SAU,Middle East & North Africa,Asia,High,NA,NA,NA,NA,NA,9,1
Scotland,GBR,Europe & Central Asia,Europe,High,NA,NA,NA,NA,NA,NA,1
Senegal,SEN,Sub-Saharan Africa,Africa,Lower middle,NA,NA,NA,NA,NA,5,1
Serbia,SRB,Europe & Central Asia,Europe,Upper middle,NA,2,NA,NA,NA,NA,1
Sierra Leone,SLE,Sub-Saharan Africa,Africa,Low,NA,NA,NA,NA,NA,2,NA
Singapore,SGP,East Asia & Pacific,Asia,High,NA,1,5,NA,NA,9,4
Slovakia,SVK,Europe & Central Asia,Europe,High,NA,NA,NA,2,NA,1,1
Slovenia,SVN,Europe & Central Asia,Europe,High,NA,2,NA,5,2,1,1
Somalia,SOM,Sub-Saharan Africa,Africa,Low,NA,NA,NA,NA,NA,4,1
South Africa,ZAF,Sub-Saharan Africa,Africa,Upper middle,NA,NA,3,1,1,26,13
South Korea,KOR,East Asia & Pacific,Asia,High,1,4,17,11,NA,10,NA
Spain,ESP,Europe & Central Asia,Europe,High,3,11,NA,30,5,36,28
Sri Lanka,LKA,South Asia,Asia,Lower middle,NA,NA,1,NA,NA,5,2
Sudan,SDN,Sub-Saharan Africa,Africa,Low,NA,NA,NA,NA,NA,4,1
Suriname,SUR,Latin America & Caribbean,Americas,Upper middle,NA,NA,NA,NA,NA,1,NA
Sweden,SWE,Europe & Central Asia,Europe,High,2,8,2,7,NA,4,6
Switzerland,CHE,Europe & Central Asia,Europe,High,11,30,5,56,5,104,43
Syria,SYR,Middle East & North Africa,Asia,Low,NA,NA,NA,NA,NA,2,NA
Taiwan,TWN,East Asia & Pacific,Asia,High,3,NA,1,NA,1,2,1
Tanzania,TZA,Sub-Saharan Africa,Africa,Lower middle,NA,NA,NA,NA,NA,2,1
Thailand,THA,East Asia & Pacific,Asia,Upper middle,NA,NA,NA,NA,NA,3,1
Togo,TGO,Sub-Saharan Africa,Africa,Low,NA,NA,NA,NA,NA,4,NA
Tunisia,TUN,Middle East & North Africa,Africa,Lower middle,NA,NA,NA,NA,1,8,6
Turkey,TUR,Europe & Central Asia,Asia,Upper middle,NA,3,1,5,3,19,7
Tuvalu,TUV,East Asia & Pacific,Oceania,Upper middle,NA,1,NA,NA,NA,NA,NA
Uganda,UGA,Sub-Saharan Africa,Africa,Low,NA,1,1,NA,NA,5,4
Ukraine,UKR,Europe & Central Asia,Europe,Lower middle,NA,1,NA,NA,NA,1,2
United Arab Emirates,ARE,Middle East & North Africa,Asia,High,NA,NA,NA,NA,NA,NA,1
United Kingdom,GBR,Europe & Central Asia,Europe,High,19,33,15,62,10,70,52
United States,USA,North America,Americas,High,316,62,54,82,39,355,495
Uruguay,URY,Latin America & Caribbean,Americas,High,NA,NA,1,NA,1,4,4
Venezuela,VEN,Latin America & Caribbean,Americas,Lower middle,NA,1,NA,NA,NA,4,9
Vietnam,VNM,East Asia & Pacific,Asia,Lower middle,NA,1,1,1,NA,1,8
Yemen,YEM,Middle East & North Africa,Asia,Low,NA,NA,NA,NA,NA,NA,1
Zambia,ZMB,Sub-Saharan Africa,Africa,Lower middle,NA,NA,NA,NA,NA,5,NA
Zimbabwe,ZWE,Sub-Saharan Africa,Africa,Lower middle,NA,NA,NA,NA,NA,3,NA
