year,type,n
2022,Student,302
2022,Industry,431
2022,Academic,494
2021,Industry,508
2021,Academic,585
2021,Student,637
2020,Industry,NA
2020,Academic,NA
2020,Student,NA
2019,Industry,509
2019,Academic,331
2019,Student,184
2018,Industry,172
2018,Academic,184
2018,Student,116
2017,Industry,605
2017,Academic,324
2017,Student,246
2016,Industry,356
2016,Academic,265
2016,Student,138
